S2   SN-56137      2019-07-03 7:25:47 PM
07796070632231303046
36117531400087682688
27680778123473122740
23560345402825282540
00696885384035362020
38782902761223503083
41592377730985188973
03310781113303239225
33758181950270239991
24570588940823375978
37529652590269026467
02549929772567606449
00570018263643022430
22315797533732988291
15625165522333714340
23018750700642614876
04323249670623829981
39473096190757061692
40806615300169440841
05946238820979106657
14034853973151528701
